{
  "appId": "io.ionic.starter",
  "appName": "DentalTea",
  "bundledWebRuntime": false,
  "npmClient": "npm",
  "webDir": "www",
  "cordova": {},
  "linuxAndroidStudioPath": "/snap/bin/android-studio"
}
